<?xml version="1.0" encoding="utf-8"?>
<!-- Generator: Adobe Illustrator 23.0.3, SVG Export Plug-In . SVG Version: 6.00 Build 0)  -->
<svg version="1.1" id="Layer_1" xmlns="http://www.w3.org/2000/svg" xmlns:xlink="http://www.w3.org/1999/xlink" x="0px" y="0px"
	 viewBox="0 0 336.7 261.9" style="enable-background:new 0 0 336.7 261.9;" xml:space="preserve">
<style type="text/css">
	.st0{fill:#FFFFFF;}
</style>
<circle cx="166.4" cy="70.7" r="70.7"/>
<g>
	<path d="M39.2,177c0-0.5,0.5-1,1-1h9.1c0.5,0,1,0.5,1,1v24.4c0,15.8-9.9,24.1-24.8,24.1c-14.9,0-24.8-8.4-24.8-24.1V177
		c0-0.5,0.5-1,1-1h9.1c0.5,0,1,0.5,1,1v24.4c0,10.1,5,14.9,13.8,14.9s13.8-4.9,13.8-14.9V177H39.2z"/>
	<path d="M57.3,224.7c-0.5,0-1-0.5-1-1v-46.8c0-0.5,0.5-1,1-1h20.8c11.8,0,20.2,7.1,20.2,18.3c0,11.3-8.8,17.9-20.2,17.9H67.4v11.5
		c0,0.5-0.5,1-1,1h-9.1V224.7z M67.4,185.3v18.2h9.8c6.4,0,10.1-3.7,10.1-9.2c0-5.6-4.1-9-10.1-9H67.4z"/>
	<path d="M158.3,224.7h-6.7l-11.2-26.6c-0.6-1.4-1.2-3.4-1.2-3.4H139c0,0-0.6,2-1.1,3.4l-11.3,26.6h-6.7l-21.7-47.2
		c-0.2-0.3-0.3-0.7-0.3-1s0.2-0.5,0.6-0.5h9.7c1,0,1.1,0,1.6,1.1l11,23.3c1.2,2.5,2.6,7.1,2.6,7.1h0.3c0,0,0.8-3.1,1.9-5.7
		l10.8-25.7h5.2l10.8,25.7c1.1,2.7,1.9,5.7,1.9,5.7h0.3c0,0,1.4-4.5,2.6-7.1l11-23.3c0.5-1,0.6-1.1,1.6-1.1h9.7
		c0.5,0,0.6,0.2,0.6,0.5s-0.2,0.6-0.3,1L158.3,224.7z"/>
	<path d="M232.2,200.4c0,15.3-12.3,25.2-26.9,25.2s-26.9-9.9-26.9-25.2c0-15,12.3-25.2,26.9-25.2S232.2,185.3,232.2,200.4z
		 M189.4,200.4c0,9.8,7.2,15.9,15.8,15.9c8.6,0,15.8-6.1,15.8-15.9s-7.2-15.9-15.8-15.9C196.7,184.4,189.4,190.5,189.4,200.4z"/>
	<path d="M238.1,177c0-0.5,0.5-1,1-1h22.6c11.9,0,20.3,6.4,20.3,17.1c0,7.4-4.5,12.3-11,14.6v0.2c0,0,1.5,1.5,2.6,3.2l8.2,12
		c0.4,0.6,0.5,0.9,0.5,1.1c0,0.3-0.2,0.6-0.6,0.6h-10.8c-0.4,0-1-0.3-1.3-0.8l-9.9-14.5h-10.5v14.3c0,0.5-0.5,1-1,1h-9.1
		c-0.5,0-1-0.5-1-1L238.1,177L238.1,177z M249.1,185.3v15.4h11.8c6.1,0,10-2.8,10-7.6c0-4.8-3.9-7.8-10-7.8H249.1z"/>
	<path d="M289.2,224.7c-0.5,0-1-0.5-1-1v-46.8c0-0.5,0.5-1,1-1h20.5c15.4,0,27,9.5,27,24.4c0,14.7-9.7,24.4-26.8,24.4H289.2z
		 M299.3,185.3v30.2h10.6c10.3,0,15.8-5.8,15.8-15.1c0-9.3-6.7-15.1-15.9-15.1H299.3z"/>
</g>
<g>
	<path d="M0.4,261.4c-0.2,0-0.4-0.2-0.4-0.4v-17.3c0-0.2,0.2-0.4,0.4-0.4h7.4c5.5,0,9.7,3.4,9.7,9c0,5.5-3.6,9-9.7,9H0.4V261.4z
		 M2.6,245.7v13.4h5.2c4.7,0,7-2.6,7-6.7c0-4.3-3-6.7-7.1-6.7L2.6,245.7L2.6,245.7z"/>
	<path d="M23.2,261.1c0,0.2-0.2,0.4-0.4,0.4h-1.9c-0.2,0-0.4-0.2-0.4-0.4v-17.3c0-0.2,0.2-0.4,0.4-0.4h1.9c0.2,0,0.4,0.2,0.4,0.4
		V261.1z"/>
	<path d="M44.9,253.6c0,4.5-3,8.1-9.1,8.1c-5.3,0-9.4-3.5-9.4-9.3s4.1-9.3,9.4-9.3c6,0,8.5,3.8,8.5,6.6c0,0.2-0.1,0.3-0.4,0.3H42
		c-0.1,0-0.3,0-0.3-0.3c-0.2-2-1.8-4.4-5.9-4.4c-3.9,0-6.8,2.6-6.8,7c0,4.4,2.9,7,6.8,7c4.3,0,6.4-2.3,6.4-4.6h-7.7
		c-0.2,0-0.4-0.2-0.4-0.4v-1.4c0-0.2,0.2-0.4,0.4-0.4H45v1.1H44.9z"/>
	<path d="M50.7,261.1c0,0.2-0.2,0.4-0.4,0.4h-1.9c-0.2,0-0.4-0.2-0.4-0.4v-17.3c0-0.2,0.2-0.4,0.4-0.4h1.9c0.2,0,0.4,0.2,0.4,0.4
		V261.1z"/>
	<path d="M52.8,245.3v-1.4c0-0.2,0.2-0.4,0.4-0.4h16.9c0.2,0,0.4,0.2,0.4,0.4v1.4c0,0.2-0.2,0.4-0.4,0.4H63v15.4
		c0,0.2-0.2,0.4-0.4,0.4h-1.9c-0.2,0-0.4-0.2-0.4-0.4v-15.4h-7.1C53,245.7,52.8,245.5,52.8,245.3z"/>
	<path d="M82.1,257.7h-10l-1.6,3.3c-0.2,0.4-0.3,0.4-0.6,0.4h-2c-0.2,0-0.3-0.1-0.3-0.2s0.1-0.2,0.2-0.4l8.8-17.4h1.1l8.8,17.4
		c0.1,0.1,0.1,0.3,0.1,0.4s-0.1,0.2-0.3,0.2h-2c-0.4,0-0.4,0-0.6-0.4L82.1,257.7z M73.3,255.4H81l-2.4-4.8c-0.4-0.9-1.4-3.3-1.4-3.3
		H77c0,0-0.9,2.4-1.4,3.3L73.3,255.4z"/>
	<path d="M91.3,259.2h9.9c0.2,0,0.4,0.2,0.4,0.4v1.4c0,0.2-0.2,0.4-0.4,0.4H89c-0.2,0-0.4-0.2-0.4-0.4v-17.3c0-0.2,0.2-0.4,0.4-0.4
		h1.9c0.2,0,0.4,0.2,0.4,0.4L91.3,259.2L91.3,259.2z"/>
	<path d="M112.6,261.1c0,0.2-0.2,0.4-0.4,0.4h-1.9c-0.2,0-0.4-0.2-0.4-0.4v-17.3c0-0.2,0.2-0.4,0.4-0.4h1.9c0.2,0,0.4,0.2,0.4,0.4
		V261.1z"/>
	<path d="M120.5,249.1c-0.7-0.7-1.1-1.4-1.1-1.4h-0.1v13.4c0,0.2-0.2,0.4-0.4,0.4H117c-0.2,0-0.4-0.2-0.4-0.4v-17.3
		c0-0.2,0.2-0.4,0.4-0.4h1.4l11.8,12.1c0.8,0.8,1.4,1.7,1.4,1.7h0.1v-13.4c0-0.2,0.2-0.4,0.4-0.4h1.9c0.2,0,0.4,0.2,0.4,0.4v17.3
		c0,0.2-0.2,0.4-0.4,0.4h-1.4L120.5,249.1z"/>
	<path d="M138.9,261.4c-0.2,0-0.4-0.2-0.4-0.4v-17.3c0-0.2,0.2-0.4,0.4-0.4h7.4c5.5,0,9.7,3.4,9.7,9c0,5.5-3.6,9-9.7,9h-7.4V261.4z
		 M141.2,245.7v13.4h5.2c4.7,0,7-2.6,7-6.7c0-4.3-3-6.7-7.1-6.7L141.2,245.7L141.2,245.7z"/>
	<path d="M173.9,243.8c0-0.2,0.2-0.4,0.4-0.4h1.9c0.2,0,0.4,0.2,0.4,0.4v9.2c0,5.8-3.5,8.7-8.9,8.7c-5.3,0-8.9-2.9-8.9-8.7v-9.2
		c0-0.2,0.2-0.4,0.4-0.4h1.9c0.2,0,0.4,0.2,0.4,0.4v9.2c0,4.4,2.4,6.4,6.2,6.4c3.9,0,6.2-2,6.2-6.4V243.8z"/>
	<path d="M181.7,255.4c0.3,0,0.4,0.1,0.4,0.4c0,2.2,1.6,3.7,5.6,3.7c3.7,0,5-1.6,5-3.4c0-1.1-0.6-2.2-3.1-2.4l-5-0.4
		c-3.6-0.3-5.2-1.9-5.2-4.4c0-2.7,2.4-5.7,7.6-5.7c5.6,0,7.6,2.5,7.6,5.6c0,0.2-0.1,0.3-0.5,0.3h-1.8c-0.3,0-0.4-0.1-0.5-0.5
		c-0.1-1.6-1.4-3.1-4.9-3.1c-3.1,0-5,1.5-5,3.4c0,1.1,0.7,2,2.9,2.2l4.9,0.4c4.1,0.3,5.5,2.3,5.5,4.7s-2,5.7-7.7,5.7
		c-5.5,0-8.3-2.6-8.3-5.7v-0.3c0-0.2,0.1-0.3,0.4-0.3h2.1V255.4z"/>
	<path d="M196.3,245.3v-1.4c0-0.2,0.2-0.4,0.4-0.4h16.9c0.2,0,0.4,0.2,0.4,0.4v1.4c0,0.2-0.2,0.4-0.4,0.4h-7.1v15.4
		c0,0.2-0.2,0.4-0.4,0.4h-1.9c-0.2,0-0.4-0.2-0.4-0.4v-15.4h-7.1C196.6,245.7,196.3,245.5,196.3,245.3z"/>
	<path d="M216.2,243.8c0-0.2,0.2-0.4,0.4-0.4h7.7c4.2,0,7.3,2.1,7.3,5.9c0,2.9-1.9,4.7-4.6,5.4v0.1c0,0,0.6,0.6,1.1,1.3l3.4,4.7
		c0.2,0.2,0.2,0.3,0.2,0.4c0,0.1-0.1,0.2-0.2,0.2H229c-0.2,0-0.3-0.1-0.4-0.2l-4.4-6.1h-5.3v6c0,0.2-0.2,0.4-0.4,0.4h-1.9
		c-0.2,0-0.4-0.2-0.4-0.4L216.2,243.8L216.2,243.8z M218.8,245.7v7.2h5.3c2.8,0,4.7-1.3,4.7-3.6c0-2.4-2-3.6-4.7-3.6H218.8z"/>
	<path d="M237.4,261.1c0,0.2-0.2,0.4-0.4,0.4h-1.9c-0.2,0-0.4-0.2-0.4-0.4v-17.3c0-0.2,0.2-0.4,0.4-0.4h1.9c0.2,0,0.4,0.2,0.4,0.4
		V261.1z"/>
	<path d="M244.1,253.3v5.9h11.4c0.2,0,0.4,0.2,0.4,0.4v1.4c0,0.2-0.2,0.4-0.4,0.4h-13.7c-0.2,0-0.4-0.2-0.4-0.4v-17.3
		c0-0.2,0.2-0.4,0.4-0.4h13.4c0.2,0,0.4,0.2,0.4,0.4v1.4c0,0.2-0.2,0.4-0.4,0.4h-11.1v5.3h10.2c0.2,0,0.4,0.2,0.4,0.4v1.4
		c0,0.2-0.2,0.4-0.4,0.4h-10.2V253.3z"/>
	<path d="M259.6,255.4c0.3,0,0.4,0.1,0.4,0.4c0,2.2,1.6,3.7,5.6,3.7c3.7,0,5-1.6,5-3.4c0-1.1-0.6-2.2-3.1-2.4l-5-0.4
		c-3.6-0.3-5.2-1.9-5.2-4.4c0-2.7,2.4-5.7,7.6-5.7c5.6,0,7.6,2.5,7.6,5.6c0,0.2-0.1,0.3-0.4,0.3h-1.8c-0.3,0-0.4-0.1-0.5-0.5
		c-0.1-1.6-1.4-3.1-4.9-3.1c-3.1,0-5,1.5-5,3.4c0,1.1,0.7,2,2.9,2.2l4.9,0.4c4.1,0.3,5.5,2.3,5.5,4.7s-2,5.7-7.7,5.7
		c-5.5,0-8.3-2.6-8.3-5.7v-0.3c0-0.2,0.1-0.3,0.4-0.3h2V255.4z"/>
	<path d="M285.2,259.2h9.9c0.2,0,0.4,0.2,0.4,0.4v1.4c0,0.2-0.2,0.4-0.4,0.4h-12.2c-0.2,0-0.4-0.2-0.4-0.4v-17.3
		c0-0.2,0.2-0.4,0.4-0.4h1.9c0.2,0,0.4,0.2,0.4,0.4L285.2,259.2L285.2,259.2z"/>
	<path d="M292.8,245.3v-1.4c0-0.2,0.2-0.4,0.4-0.4h16.9c0.2,0,0.4,0.2,0.4,0.4v1.4c0,0.2-0.2,0.4-0.4,0.4H303v15.4
		c0,0.2-0.2,0.4-0.4,0.4h-1.9c-0.2,0-0.4-0.2-0.4-0.4v-15.4h-7.1C293.1,245.7,292.8,245.5,292.8,245.3z"/>
	<path d="M313,261.4c-0.2,0-0.4-0.2-0.4-0.4v-17.3c0-0.2,0.2-0.4,0.4-0.4h7.4c5.5,0,9.7,3.4,9.7,9c0,5.5-3.6,9-9.7,9H313V261.4z
		 M315.3,245.7v13.4h5.2c4.7,0,7-2.6,7-6.7c0-4.3-3-6.7-7.1-6.7L315.3,245.7L315.3,245.7z"/>
	<path d="M333.4,258.5c0.9,0,1.6,0.7,1.6,1.6s-0.7,1.6-1.6,1.6c-0.9,0-1.6-0.7-1.6-1.6S332.5,258.5,333.4,258.5z"/>
</g>
<g>
	<path class="st0" d="M193.4,50.5L193.4,50.5l-26.3-26.3l0,0l0,0c0,0-0.2-0.3-0.7-0.3c-0.4,0-0.7,0.3-0.7,0.3l0,0l0,0l-26.3,26.3
		l0,0c0,0-0.1,0.3,0,0.7c0.2,0.4,0.5,0.5,0.5,0.5l0,0h11.5c0.2,0,0.4,0,0.7-0.2c0.4-0.3,0.7-0.6,0.7-0.6l0,0l4.1-4.1l9.5-10.5
		l9.5,10.5l4.1,4.1l0,0l0,0l0.2,0.2c0.1,0.1,0.3,0.3,0.5,0.4c0.3,0.2,0.5,0.2,0.7,0.2h11.5l0,0c0,0,0.3-0.1,0.5-0.5
		C193.6,50.8,193.4,50.5,193.4,50.5z"/>
	<path class="st0" d="M213,71.9c0.2-0.4,0.1-0.7,0.1-0.7l0,0l-7.7-7.7l0,0c0,0-0.3-0.4-0.7-0.6c-0.4-0.2-0.8-0.2-0.8-0.2l0,0h-13.5
		l0,0h-9.2c-0.5,0-1,0.5-1,1v24.4c0,10.1-5,14.9-13.8,14.9s-13.8-4.9-13.8-14.9V63.7c0-0.5-0.5-1-1-1h-9.1l0,0H129l0,0
		c0,0-0.4,0-0.8,0.2c-0.2,0.1-0.3,0.2-0.4,0.4l-8,8l0,0c0,0-0.1,0.3,0.1,0.7c0.2,0.4,0.5,0.5,0.5,0.5h21.2v15.6
		c0,15.8,9.9,24.1,24.8,24.1s24.8-8.4,24.8-24.1V72.5h21.2C212.5,72.4,212.8,72.3,213,71.9z"/>
</g>
</svg>
