<svg id="Layer_1" data-name="Layer 1" xmlns="http://www.w3.org/2000/svg" viewBox="0 0 45 45">
  <defs>
    <style>
      @keyframes rotation--amination {
        0% {
          transform: rotateZ(0deg);
        }

        100% {
          transform: rotateZ(360deg)
        }
      }

      @keyframes circle--animation {
        0% {
          stroke-dasharray: 194;
          stroke-dashoffset: -172;
          transform: rotateZ(0deg);
        }

        100% {
          stroke-dasharray: 130;
          stroke-dashoffset: -57;
          transform: rotateZ(360deg)
        }
      }

      :root {
        animation: 2s linear infinite svg--animation;
      }

      #circleCheck {
        fill: none;
        stroke: green;
        stroke-linecap: round;
        stroke-linejoin: round;
        stroke-width: 5px;
        transform-origin: 50% 50%;

      }

      .spinner {
        animation-duration: 1.4s;
        animation-timing-function: ease-in-out;
        animation-iteration-count: infinite;
        animation-fill-mode: both;
        animation-direction: alternate;
        animation-name: circle--animation;
      }
    </style>
  </defs>
  <path id="circleCheck" class="spinner" d="M37.31,9.06,19.9,33.62,2.5,22.5a20,20,0,1,0,.38-3.88"/>
</svg>