<?xml version="1.0" encoding="UTF-8"?>
<svg width="90px" height="43px" viewBox="0 0 90 43" version="1.1" xmlns="http://www.w3.org/2000/svg" xmlns:xlink="http://www.w3.org/1999/xlink">
    <!-- Generator: Sketch 55 (78076) - https://sketchapp.com -->
    <title>Combined Shape</title>
    <desc>Created with Sketch.</desc>
    <defs>
        <path d="M-4.6629367e-15,42.638 L-4.6629367e-15,0 L2.504,0 L2.504,42.638 L-4.6629367e-15,42.638 Z M17.0334,0.0009 L20.3614,0.0009 L18.3454,20.0669 L13.7914,20.0669 L13.1884,8.3219 L13.0054,8.3219 L12.3794,20.0669 L7.7904,20.0669 L5.8114,0.0009 L9.1164,0.0009 L10.0344,13.6309 L10.1304,13.6309 L11.4124,0.0009 L14.7414,0.0009 L14.7394,0.0149 L16.0194,13.6309 L16.1154,13.6309 L17.0334,0.0009 Z M33.0791,26.4572 L33.0791,28.6862 L29.6411,28.6862 L29.6411,25.9872 C29.6411,25.6652 29.5971,25.4402 29.5091,25.3122 C29.4201,25.1832 29.2751,25.1192 29.0751,25.1192 C28.8891,25.1192 28.7571,25.1852 28.6771,25.3172 C28.5961,25.4502 28.5561,25.6732 28.5561,25.9872 L28.5561,39.2432 C28.5561,39.5482 28.6001,39.7652 28.6881,39.8942 C28.7771,40.0232 28.9211,40.0872 29.1231,40.0872 C29.3161,40.0872 29.4501,40.0272 29.5271,39.9062 C29.6031,39.7852 29.6411,39.5652 29.6411,39.2432 L29.6411,34.8552 L33.0791,34.8552 L33.0791,38.7482 C33.0791,40.5172 32.8421,41.6312 32.3681,42.0892 C31.8921,42.5482 30.8191,42.7772 29.1471,42.7772 C27.4261,42.7772 26.3281,42.5472 25.8541,42.0842 C25.3791,41.6212 25.1421,40.5092 25.1421,38.7482 L25.1421,26.4572 C25.1421,24.6722 25.3771,23.5592 25.8481,23.1172 C26.3181,22.6742 27.4021,22.4522 29.0991,22.4522 C30.8271,22.4522 31.9231,22.6822 32.3851,23.1412 C32.8481,23.5982 33.0791,24.7042 33.0791,26.4572 Z M15.6377,22.5734 L19.8347,22.5734 C21.3297,22.5734 22.3257,22.8244 22.8207,23.3274 C23.3157,23.8294 23.5627,24.9374 23.5627,26.6494 L23.5627,29.2674 C23.5627,30.3934 23.4477,31.1854 23.2187,31.6434 C22.9897,32.1024 22.5847,32.4644 22.0057,32.7294 C22.5697,32.9464 22.9697,33.2824 23.2057,33.7374 C23.4437,34.1914 23.5627,34.8844 23.5627,35.8174 L23.5627,42.6324 L20.1487,42.6324 L20.1487,35.2024 C20.1487,34.8724 20.0857,34.6374 19.9607,34.4964 C19.8367,34.3554 19.6287,34.2854 19.3397,34.2854 C19.3087,34.2854 19.2627,34.2894 19.2017,34.2974 C19.1417,34.3054 19.0957,34.3094 19.0627,34.3094 L19.0627,42.6324 L15.6377,42.6324 L15.6377,22.5734 Z M19.0627,25.1904 L19.0627,31.3184 C19.1037,31.3184 19.1577,31.3224 19.2267,31.3304 C19.2937,31.3384 19.3397,31.3424 19.3647,31.3424 C19.6697,31.3424 19.8767,31.2714 19.9857,31.1314 C20.0947,30.9914 20.1487,30.7154 20.1487,30.3054 L20.1487,26.4564 C20.1487,25.8534 20.0927,25.4924 19.9797,25.3714 C19.8667,25.2504 19.6377,25.1904 19.2917,25.1904 L19.0627,25.1904 Z M42.623,22.5841 L42.623,42.6321 L39.211,42.6321 L39.211,32.8791 L38.102,32.8791 L38.102,42.6321 L34.703,42.6321 L34.703,22.5841 L38.102,22.5841 L38.102,30.2391 L39.211,30.2391 L39.211,22.5841 L42.623,22.5841 Z M44.61,42.575 L44.61,22.526 L48.034,22.526 L48.034,42.575 L44.61,42.575 Z M56.0927,22.5841 L56.0927,25.2481 L54.4057,25.2481 L54.4057,42.6321 L50.9817,42.6321 L50.9817,25.2481 L49.2937,25.2481 L49.2937,22.5841 L56.0927,22.5841 Z M63.1904,39.9923 L63.1904,42.6323 L57.7174,42.6323 L57.7174,22.5843 L63.1904,22.5843 L63.1904,25.1993 L61.1404,25.1993 L61.1404,30.3113 L62.5864,30.3113 L62.5864,32.9513 L61.1404,32.9513 L61.1404,39.9923 L63.1904,39.9923 Z M72.7461,26.4655 L72.7461,28.6925 L69.3101,28.6925 L69.3101,25.9955 C69.3101,25.6735 69.2671,25.4495 69.1791,25.3205 C69.0901,25.1915 68.9441,25.1275 68.7441,25.1275 C68.5591,25.1275 68.4271,25.1935 68.3471,25.3265 C68.2661,25.4595 68.2251,25.6825 68.2251,25.9955 L68.2251,39.2445 C68.2251,39.5495 68.2691,39.7665 68.3581,39.8955 C68.4461,40.0245 68.5921,40.0885 68.7921,40.0885 C68.9851,40.0885 69.1191,40.0285 69.1951,39.9075 C69.2721,39.7865 69.3101,39.5665 69.3101,39.2445 L69.3101,34.8595 L72.7461,34.8595 L72.7461,38.7505 C72.7461,40.5185 72.5101,41.6315 72.0351,42.0895 C71.5601,42.5475 70.4871,42.7765 68.8161,42.7765 C67.0971,42.7765 65.9991,42.5465 65.5251,42.0835 C65.0511,41.6215 64.8131,40.5105 64.8131,38.7505 L64.8131,26.4655 C64.8131,24.6815 65.0491,23.5685 65.5191,23.1265 C65.9891,22.6845 67.0721,22.4625 68.7681,22.4625 C70.4961,22.4625 71.5911,22.6925 72.0541,23.1505 C72.5161,23.6085 72.7461,24.7135 72.7461,26.4655 Z M80.8056,22.5841 L80.8056,25.2481 L79.1186,25.2481 L79.1186,42.6321 L75.6956,42.6321 L75.6956,25.2481 L74.0066,25.2481 L74.0066,22.5841 L80.8056,22.5841 Z M90,26.463 L90,28.706 L86.588,28.706 L86.588,25.969 C86.588,25.664 86.544,25.447 86.456,25.318 C86.367,25.189 86.222,25.125 86.021,25.125 C85.845,25.125 85.717,25.187 85.642,25.312 C85.565,25.437 85.527,25.656 85.527,25.969 L85.527,29.08 C85.527,29.441 85.579,29.7 85.684,29.857 C85.788,30.014 85.993,30.181 86.299,30.358 L88.397,31.563 C88.967,31.893 89.377,32.281 89.626,32.727 C89.875,33.173 90,33.798 90,34.602 L90,38.786 C90,40.57 89.767,41.681 89.3,42.12 C88.835,42.558 87.741,42.777 86.021,42.777 C84.341,42.777 83.262,42.546 82.784,42.084 C82.306,41.622 82.066,40.522 82.066,38.786 L82.066,34.879 L85.527,34.879 L85.527,39.244 C85.527,39.549 85.573,39.77 85.665,39.907 C85.758,40.044 85.9,40.112 86.094,40.112 C86.271,40.112 86.397,40.046 86.473,39.913 C86.55,39.78 86.588,39.557 86.588,39.244 L86.588,35 C86.588,34.638 86.54,34.385 86.443,34.24 C86.347,34.096 86.142,33.931 85.828,33.746 L83.622,32.456 C83.067,32.134 82.669,31.74 82.428,31.274 C82.187,30.808 82.066,30.157 82.066,29.321 L82.066,26.463 C82.066,24.727 82.303,23.626 82.778,23.16 C83.252,22.694 84.341,22.46 86.045,22.46 C87.726,22.46 88.804,22.684 89.283,23.129 C89.761,23.575 90,24.687 90,26.463 Z M9.4902,35.6979 L10.6482,35.6979 L10.1292,26.5519 L10.0332,26.5519 L9.4902,35.6979 Z M12.3502,22.5699 L14.3772,42.6359 L11.0462,42.6359 L10.7932,38.3649 L10.7852,38.3649 L9.3692,38.3649 L9.3622,38.4829 L9.1162,42.6359 L5.8102,42.6359 L7.7892,22.5699 L12.3502,22.5699 Z M24.4072,13.1764 L25.5642,13.1764 L25.0462,4.0304 L24.9502,4.0304 L24.4072,13.1764 Z M27.2662,0.0484 L29.2942,20.1144 L25.9632,20.1144 L25.7102,15.8434 L25.7022,15.8434 L24.2862,15.8434 L24.2792,15.9614 L24.0332,20.1144 L20.7262,20.1144 L22.7062,0.0484 L27.2662,0.0484 Z" id="path-1"></path>
    </defs>
    <g id="Symbols" stroke="none" stroke-width="1" fill="none" fill-rule="evenodd">
        <g id="Logo-/-Horizontal-/-Wordmark">
            <mask id="mask-2" fill="#E03C31">
                <use xlink:href="#path-1"></use>
            </mask>
            <use id="Combined-Shape" fill="#E03C31" xlink:href="#path-1"></use>
        </g>
    </g>
</svg>